%YAML 1.1
%TAG !u! tag:unity3d.com,2011:
--- !u!129 &1
PlayerSettings:
  m_ObjectHideFlags: 0
  serializedVersion: 15
  productGUID: 0a60e055f2d6ae1488b33355a0c03b98
  AndroidProfiler: 0
  AndroidFilterTouchesWhenObscured: 0
  AndroidEnableSustainedPerformanceMode: 0
  defaultScreenOrientation: 4
  targetDevice: 2
  useOnDemandResources: 0
  accelerometerFrequency: 0
  companyName: Edgaras Lagunovas
  productName: Promptly
  defaultCursor: {fileID: 0}
  cursorHotspot: {x: 0, y: 0}
  m_SplashScreenBackgroundColor: {r: 0.13725491, g: 0.12156863, b: 0.1254902, a: 1}
  m_ShowUnitySplashScreen: 0
  m_ShowUnitySplashLogo: 1
  m_SplashScreenOverlayOpacity: 1
  m_SplashScreenAnimation: 1
  m_SplashScreenLogoStyle: 1
  m_SplashScreenDrawMode: 0
  m_SplashScreenBackgroundAnimationZoom: 1
  m_SplashScreenLogoAnimationZoom: 1
  m_SplashScreenBackgroundLandscapeAspect: 1
  m_SplashScreenBackgroundPortraitAspect: 1
  m_SplashScreenBackgroundLandscapeUvs:
    serializedVersion: 2
    x: 0
    y: 0
    width: 1
    height: 1
  m_SplashScreenBackgroundPortraitUvs:
    serializedVersion: 2
    x: 0
    y: 0
    width: 1
    height: 1
  m_SplashScreenLogos: []
  m_VirtualRealitySplashScreen: {fileID: 0}
  m_HolographicTrackingLossScreen: {fileID: 0}
  defaultScreenWidth: 1024
  defaultScreenHeight: 768
  defaultScreenWidthWeb: 960
  defaultScreenHeightWeb: 600
  m_StereoRenderingPath: 0
  m_ActiveColorSpace: 0
  m_MTRendering: 1
  m_StackTraceTypes: 010000000100000001000000010000000100000001000000
  iosShowActivityIndicatorOnLoading: -1
  androidShowActivityIndicatorOnLoading: 0
  tizenShowActivityIndicatorOnLoading: -1
  iosAppInBackgroundBehavior: 0
  displayResolutionDialog: 1
  iosAllowHTTPDownload: 1
  allowedAutorotateToPortrait: 1
  allowedAutorotateToPortraitUpsideDown: 1
  allowedAutorotateToLandscapeRight: 1
  allowedAutorotateToLandscapeLeft: 1
  useOSAutorotation: 1
  use32BitDisplayBuffer: 1
  preserveFramebufferAlpha: 0
  disableDepthAndStencilBuffers: 0
  androidBlitType: 0
  defaultIsNativeResolution: 1
  macRetinaSupport: 1
  runInBackground: 0
  captureSingleScreen: 0
  muteOtherAudioSources: 0
  Prepare IOS For Recording: 0
  Force IOS Speakers When Recording: 0
  deferSystemGesturesMode: 0
  hideHomeButton: 0
  submitAnalytics: 1
  usePlayerLog: 1
  bakeCollisionMeshes: 0
  forceSingleInstance: 0
  resizableWindow: 0
  useMacAppStoreValidation: 0
  macAppStoreCategory: public.app-category.games
  gpuSkinning: 0
  graphicsJobs: 0
  xboxPIXTextureCapture: 0
  xboxEnableAvatar: 0
  xboxEnableKinect: 0
  xboxEnableKinectAutoTracking: 0
  xboxEnableFitness: 0
  visibleInBackground: 0
  allowFullscreenSwitch: 1
  graphicsJobMode: 0
  fullscreenMode: 1
  xboxSpeechDB: 0
  xboxEnableHeadOrientation: 0
  xboxEnableGuest: 0
  xboxEnablePIXSampling: 0
  metalFramebufferOnly: 0
  n3dsDisableStereoscopicView: 0
  n3dsEnableSharedListOpt: 1
  n3dsEnableVSync: 0
  xboxOneResolution: 0
  xboxOneSResolution: 0
  xboxOneXResolution: 3
  xboxOneMonoLoggingLevel: 0
  xboxOneLoggingLevel: 1
  xboxOneDisableEsram: 0
  xboxOnePresentImmediateThreshold: 0
  switchQueueCommandMemory: 0
  videoMemoryForVertexBuffers: 0
  psp2PowerMode: 0
  psp2AcquireBGM: 1
  m_SupportedAspectRatios:
    4:3: 1
    5:4: 1
    16:10: 1
    16:9: 1
    Others: 1
  bundleVersion: 6
  preloadedAssets: []
  metroInputSource: 0
  wsaTransparentSwapchain: 0
  m_HolographicPauseOnTrackingLoss: 0
  xboxOneDisableKinectGpuReservation: 0
  xboxOneEnable7thCore: 0
  vrSettings:
    cardboard:
      depthFormat: 0
      enableTransitionView: 0
    daydream:
      depthFormat: 0
      useSustainedPerformanceMode: 0
      enableVideoLayer: 0
      useProtectedVideoMemory: 0
      minimumSupportedHeadTracking: 0
      maximumSupportedHeadTracking: 1
    hololens:
      depthFormat: 1
      depthBufferSharingEnabled: 0
    enable360StereoCapture: 0
    oculus:
      sharedDepthBuffer: 0
      dashSupport: 0
  protectGraphicsMemory: 0
  useHDRDisplay: 0
  m_ColorGamuts: 00000000
  targetPixelDensity: 30
  resolutionScalingMode: 0
  androidSupportedAspectRatio: 1
  androidMaxAspectRatio: 2.1
  applicationIdentifier:
    Android: lt.edgu.promptly
    Standalone: lt.edgu.promptly
    Tizen: com.Company.ProductName
    iOS: lt.edgu.promptly
    tvOS: com.Company.ProductName
  buildNumber:
    Standalone: 6
    iOS: 0
  AndroidBundleVersionCode: 6
  AndroidMinSdkVersion: 16
  AndroidTargetSdkVersion: 0
  AndroidPreferredInstallLocation: 1
  aotOptions: 
  stripEngineCode: 1
  iPhoneStrippingLevel: 2
  iPhoneScriptCallOptimization: 1
  ForceInternetPermission: 0
  ForceSDCardPermission: 0
  CreateWallpaper: 0
  APKExpansionFiles: 0
  keepLoadedShadersAlive: 0
  StripUnusedMeshComponents: 0
  VertexChannelCompressionMask: 214
  iPhoneSdkVersion: 988
  iOSTargetOSVersionString: 8.0
  tvOSSdkVersion: 0
  tvOSRequireExtendedGameController: 0
  tvOSTargetOSVersionString: 9.0
  uIPrerenderedIcon: 1
  uIRequiresPersistentWiFi: 0
  uIRequiresFullScreen: 1
  uIStatusBarHidden: 1
  uIExitOnSuspend: 0
  uIStatusBarStyle: 0
  iPhoneSplashScreen: {fileID: 0}
  iPhoneHighResSplashScreen: {fileID: 0}
  iPhoneTallHighResSplashScreen: {fileID: 0}
  iPhone47inSplashScreen: {fileID: 0}
  iPhone55inPortraitSplashScreen: {fileID: 0}
  iPhone55inLandscapeSplashScreen: {fileID: 0}
  iPhone58inPortraitSplashScreen: {fileID: 0}
  iPhone58inLandscapeSplashScreen: {fileID: 0}
  iPadPortraitSplashScreen: {fileID: 0}
  iPadHighResPortraitSplashScreen: {fileID: 0}
  iPadLandscapeSplashScreen: {fileID: 0}
  iPadHighResLandscapeSplashScreen: {fileID: 0}
  appleTVSplashScreen: {fileID: 0}
  appleTVSplashScreen2x: {fileID: 0}
  tvOSSmallIconLayers: []
  tvOSSmallIconLayers2x: []
  tvOSLargeIconLayers: []
  tvOSLargeIconLayers2x: []
  tvOSTopShelfImageLayers: []
  tvOSTopShelfImageLayers2x: []
  tvOSTopShelfImageWideLayers: []
  tvOSTopShelfImageWideLayers2x: []
  iOSLaunchScreenType: 0
  iOSLaunchScreenPortrait: {fileID: 0}
  iOSLaunchScreenLandscape: {fileID: 0}
  iOSLaunchScreenBackgroundColor:
    serializedVersion: 2
    rgba: 0
  iOSLaunchScreenFillPct: 100
  iOSLaunchScreenSize: 100
  iOSLaunchScreenCustomXibPath: 
  iOSLaunchScreeniPadType: 0
  iOSLaunchScreeniPadImage: {fileID: 0}
  iOSLaunchScreeniPadBackgroundColor:
    serializedVersion: 2
    rgba: 0
  iOSLaunchScreeniPadFillPct: 100
  iOSLaunchScreeniPadSize: 100
  iOSLaunchScreeniPadCustomXibPath: 
  iOSUseLaunchScreenStoryboard: 0
  iOSLaunchScreenCustomStoryboardPath: 
  iOSDeviceRequirements: []
  iOSURLSchemes: []
  iOSBackgroundModes: 0
  iOSMetalForceHardShadows: 0
  metalEditorSupport: 1
  metalAPIValidation: 1
  iOSRenderExtraFrameOnPause: 1
  appleDeveloperTeamID: 
  iOSManualSigningProvisioningProfileID: 
  tvOSManualSigningProvisioningProfileID: 
  iOSManualSigningProvisioningProfileType: 0
  tvOSManualSigningProvisioningProfileType: 0
  appleEnableAutomaticSigning: 0
  iOSRequireARKit: 0
  appleEnableProMotion: 0
  clonedFromGUID: 00000000000000000000000000000000
  templatePackageId: 
  templateDefaultScene: 
  AndroidTargetArchitectures: 1
  AndroidSplashScreenScale: 0
  androidSplashScreen: {fileID: 0}
  AndroidKeystoreName: C:/Unity/Promptly/gplay.keystore
  AndroidKeyaliasName: promptly
  AndroidTVCompatibility: 1
  AndroidIsGame: 1
  AndroidEnableTango: 0
  androidEnableBanner: 0
  androidUseLowAccuracyLocation: 0
  m_AndroidBanners:
  - width: 320
    height: 180
    banner: {fileID: 0}
  androidGamepadSupportLevel: 0
  resolutionDialogBanner: {fileID: 0}
  m_BuildTargetIcons:
  - m_BuildTarget: Android
    m_Icons:
    - serializedVersion: 2
      m_Icon: {fileID: 2800000, guid: 7dc1e73416491c9459b2fc146f14298c, type: 3}
      m_Width: 192
      m_Height: 192
      m_Kind: 0
    - serializedVersion: 2
      m_Icon: {fileID: 2800000, guid: 6f3f6ba5f060b31479307784c5dfe5e1, type: 3}
      m_Width: 144
      m_Height: 144
      m_Kind: 0
    - serializedVersion: 2
      m_Icon: {fileID: 2800000, guid: e295e4214f8e72e4f89325130f35124b, type: 3}
      m_Width: 96
      m_Height: 96
      m_Kind: 0
    - serializedVersion: 2
      m_Icon: {fileID: 2800000, guid: 082aa590b5fe46e41a4eb25a978cbe68, type: 3}
      m_Width: 72
      m_Height: 72
      m_Kind: 0
    - serializedVersion: 2
      m_Icon: {fileID: 2800000, guid: 9c0ac29152c9318448f6ae52df52f9c9, type: 3}
      m_Width: 48
      m_Height: 48
      m_Kind: 0
    - serializedVersion: 2
      m_Icon: {fileID: 2800000, guid: 3c2089bf73b714c4f8e13d154d0857e3, type: 3}
      m_Width: 36
      m_Height: 36
      m_Kind: 0
  - m_BuildTarget: Standalone
    m_Icons:
    - serializedVersion: 2
      m_Icon: {fileID: 2800000, guid: 02b4af35f67aacc49a7c467d8e95052f, type: 3}
      m_Width: 1024
      m_Height: 1024
      m_Kind: 0
    - serializedVersion: 2
      m_Icon: {fileID: 2800000, guid: 7fad954a662603b4e87722cf6adb1031, type: 3}
      m_Width: 512
      m_Height: 512
      m_Kind: 0
    - serializedVersion: 2
      m_Icon: {fileID: 2800000, guid: 6efc806f04151fa45a062d73face9d04, type: 3}
      m_Width: 256
      m_Height: 256
      m_Kind: 0
    - serializedVersion: 2
      m_Icon: {fileID: 2800000, guid: 3c84da473d6608e46b6eae5a4c71d4e8, type: 3}
      m_Width: 128
      m_Height: 128
      m_Kind: 0
    - serializedVersion: 2
      m_Icon: {fileID: 2800000, guid: 7fed483d49df97b46a5cb60922662a13, type: 3}
      m_Width: 48
      m_Height: 48
      m_Kind: 0
    - serializedVersion: 2
      m_Icon: {fileID: 2800000, guid: 22cc096beb7bb494dae5bae54c05c83e, type: 3}
      m_Width: 32
      m_Height: 32
      m_Kind: 0
    - serializedVersion: 2
      m_Icon: {fileID: 0}
      m_Width: 16
      m_Height: 16
      m_Kind: 0
  - m_BuildTarget: iPhone
    m_Icons:
    - serializedVersion: 2
      m_Icon: {fileID: 2800000, guid: 3dd02926cee1a41cfae3be655dc9aae0, type: 3}
      m_Width: 180
      m_Height: 180
      m_Kind: 0
    - serializedVersion: 2
      m_Icon: {fileID: 0}
      m_Width: 167
      m_Height: 167
      m_Kind: 0
    - serializedVersion: 2
      m_Icon: {fileID: 0}
      m_Width: 152
      m_Height: 152
      m_Kind: 0
    - serializedVersion: 2
      m_Icon: {fileID: 0}
      m_Width: 144
      m_Height: 144
      m_Kind: 0
    - serializedVersion: 2
      m_Icon: {fileID: 0}
      m_Width: 120
      m_Height: 120
      m_Kind: 0
    - serializedVersion: 2
      m_Icon: {fileID: 0}
      m_Width: 114
      m_Height: 114
      m_Kind: 0
    - serializedVersion: 2
      m_Icon: {fileID: 0}
      m_Width: 76
      m_Height: 76
      m_Kind: 0
    - serializedVersion: 2
      m_Icon: {fileID: 0}
      m_Width: 72
      m_Height: 72
      m_Kind: 0
    - serializedVersion: 2
      m_Icon: {fileID: 0}
      m_Width: 57
      m_Height: 57
      m_Kind: 0
    - serializedVersion: 2
      m_Icon: {fileID: 0}
      m_Width: 120
      m_Height: 120
      m_Kind: 0
    - serializedVersion: 2
      m_Icon: {fileID: 0}
      m_Width: 80
      m_Height: 80
      m_Kind: 0
    - serializedVersion: 2
      m_Icon: {fileID: 0}
      m_Width: 40
      m_Height: 40
      m_Kind: 0
    - serializedVersion: 2
      m_Icon: {fileID: 0}
      m_Width: 87
      m_Height: 87
      m_Kind: 0
    - serializedVersion: 2
      m_Icon: {fileID: 0}
      m_Width: 58
      m_Height: 58
      m_Kind: 0
    - serializedVersion: 2
      m_Icon: {fileID: 0}
      m_Width: 29
      m_Height: 29
      m_Kind: 0
  - m_BuildTarget: 
    m_Icons:
    - serializedVersion: 2
      m_Icon: {fileID: 2800000, guid: 7fad954a662603b4e87722cf6adb1031, type: 3}
      m_Width: 128
      m_Height: 128
      m_Kind: 0
  m_BuildTargetPlatformIcons: []
  m_BuildTargetBatching: []
  m_BuildTargetGraphicsAPIs: []
  m_BuildTargetVRSettings: []
  m_BuildTargetEnableVuforiaSettings: []
  openGLRequireES31: 0
  openGLRequireES31AEP: 0
  m_TemplateCustomTags: {}
  mobileMTRendering:
    Android: 1
    iPhone: 1
    tvOS: 1
  m_BuildTargetGroupLightmapEncodingQuality:
  - m_BuildTarget: Standalone
    m_EncodingQuality: 1
  - m_BuildTarget: XboxOne
    m_EncodingQuality: 1
  - m_BuildTarget: PS4
    m_EncodingQuality: 1
  playModeTestRunnerEnabled: 0
  runPlayModeTestAsEditModeTest: 0
  actionOnDotNetUnhandledException: 1
  enableInternalProfiler: 0
  logObjCUncaughtExceptions: 1
  enableCrashReportAPI: 0
  cameraUsageDescription: 
  locationUsageDescription: 
  microphoneUsageDescription: 
  switchNetLibKey: 
  switchSocketMemoryPoolSize: 6144
  switchSocketAllocatorPoolSize: 128
  switchSocketConcurrencyLimit: 14
  switchScreenResolutionBehavior: 2
  switchUseCPUProfiler: 0
  switchApplicationID: 0x01004b9000490000
  switchNSODependencies: 
  switchTitleNames_0: 
  switchTitleNames_1: 
  switchTitleNames_2: 
  switchTitleNames_3: 
  switchTitleNames_4: 
  switchTitleNames_5: 
  switchTitleNames_6: 
  switchTitleNames_7: 
  switchTitleNames_8: 
  switchTitleNames_9: 
  switchTitleNames_10: 
  switchTitleNames_11: 
  switchTitleNames_12: 
  switchTitleNames_13: 
  switchTitleNames_14: 
  switchPublisherNames_0: 
  switchPublisherNames_1: 
  switchPublisherNames_2: 
  switchPublisherNames_3: 
  switchPublisherNames_4: 
  switchPublisherNames_5: 
  switchPublisherNames_6: 
  switchPublisherNames_7: 
  switchPublisherNames_8: 
  switchPublisherNames_9: 
  switchPublisherNames_10: 
  switchPublisherNames_11: 
  switchPublisherNames_12: 
  switchPublisherNames_13: 
  switchPublisherNames_14: 
  switchIcons_0: {fileID: 0}
  switchIcons_1: {fileID: 0}
  switchIcons_2: {fileID: 0}
  switchIcons_3: {fileID: 0}
  switchIcons_4: {fileID: 0}
  switchIcons_5: {fileID: 0}
  switchIcons_6: {fileID: 0}
  switchIcons_7: {fileID: 0}
  switchIcons_8: {fileID: 0}
  switchIcons_9: {fileID: 0}
  switchIcons_10: {fileID: 0}
  switchIcons_11: {fileID: 0}
  switchIcons_12: {fileID: 0}
  switchIcons_13: {fileID: 0}
  switchIcons_14: {fileID: 0}
  switchSmallIcons_0: {fileID: 0}
  switchSmallIcons_1: {fileID: 0}
  switchSmallIcons_2: {fileID: 0}
  switchSmallIcons_3: {fileID: 0}
  switchSmallIcons_4: {fileID: 0}
  switchSmallIcons_5: {fileID: 0}
  switchSmallIcons_6: {fileID: 0}
  switchSmallIcons_7: {fileID: 0}
  switchSmallIcons_8: {fileID: 0}
  switchSmallIcons_9: {fileID: 0}
  switchSmallIcons_10: {fileID: 0}
  switchSmallIcons_11: {fileID: 0}
  switchSmallIcons_12: {fileID: 0}
  switchSmallIcons_13: {fileID: 0}
  switchSmallIcons_14: {fileID: 0}
  switchManualHTML: 
  switchAccessibleURLs: 
  switchLegalInformation: 
  switchMainThreadStackSize: 1048576
  switchPresenceGroupId: 0x01004b9000490000
  switchLogoHandling: 0
  switchReleaseVersion: 0
  switchDisplayVersion: 1.0.0
  switchStartupUserAccount: 0
  switchTouchScreenUsage: 0
  switchSupportedLanguagesMask: 0
  switchLogoType: 0
  switchApplicationErrorCodeCategory: 
  switchUserAccountSaveDataSize: 0
  switchUserAccountSaveDataJournalSize: 0
  switchApplicationAttribute: 0
  switchCardSpecSize: 4
  switchCardSpecClock: 25
  switchRatingsMask: 0
  switchRatingsInt_0: 0
  switchRatingsInt_1: 0
  switchRatingsInt_2: 0
  switchRatingsInt_3: 0
  switchRatingsInt_4: 0
  switchRatingsInt_5: 0
  switchRatingsInt_6: 0
  switchRatingsInt_7: 0
  switchRatingsInt_8: 0
  switchRatingsInt_9: 0
  switchRatingsInt_10: 0
  switchRatingsInt_11: 0
  switchLocalCommunicationIds_0: 0x01004b9000490000
  switchLocalCommunicationIds_1: 
  switchLocalCommunicationIds_2: 
  switchLocalCommunicationIds_3: 
  switchLocalCommunicationIds_4: 
  switchLocalCommunicationIds_5: 
  switchLocalCommunicationIds_6: 
  switchLocalCommunicationIds_7: 
  switchParentalControl: 0
  switchAllowsScreenshot: 1
  switchAllowsVideoCapturing: 1
  switchAllowsRuntimeAddOnContentInstall: 0
  switchDataLossConfirmation: 0
  switchSupportedNpadStyles: 3
  switchNativeFsCacheSize: 32
  switchSocketConfigEnabled: 0
  switchTcpInitialSendBufferSize: 32
  switchTcpInitialReceiveBufferSize: 64
  switchTcpAutoSendBufferSizeMax: 256
  switchTcpAutoReceiveBufferSizeMax: 256
  switchUdpSendBufferSize: 9
  switchUdpReceiveBufferSize: 42
  switchSocketBufferEfficiency: 4
  switchSocketInitializeEnabled: 1
  switchNetworkInterfaceManagerInitializeEnabled: 1
  switchPlayerConnectionEnabled: 1
  ps4NPAgeRating: 12
  ps4NPTitleSecret: 
  ps4NPTrophyPackPath: 
  ps4ParentalLevel: 1
  ps4ContentID: ED1633-NPXX51362_00-0000000000000000
  ps4Category: 0
  ps4MasterVersion: 01.00
  ps4AppVersion: 01.00
  ps4AppType: 0
  ps4ParamSfxPath: 
  ps4VideoOutPixelFormat: 0
  ps4VideoOutInitialWidth: 1920
  ps4VideoOutBaseModeInitialWidth: 1920
  ps4VideoOutReprojectionRate: 120
  ps4PronunciationXMLPath: 
  ps4PronunciationSIGPath: 
  ps4BackgroundImagePath: 
  ps4StartupImagePath: 
  ps4StartupImagesFolder: 
  ps4IconImagesFolder: 
  ps4SaveDataImagePath: 
  ps4SdkOverride: 
  ps4BGMPath: 
  ps4ShareFilePath: 
  ps4ShareOverlayImagePath: 
  ps4PrivacyGuardImagePath: 
  ps4NPtitleDatPath: 
  ps4RemotePlayKeyAssignment: -1
  ps4RemotePlayKeyMappingDir: 
  ps4PlayTogetherPlayerCount: 0
  ps4EnterButtonAssignment: 1
  ps4ApplicationParam1: 0
  ps4ApplicationParam2: 0
  ps4ApplicationParam3: 0
  ps4ApplicationParam4: 0
  ps4DownloadDataSize: 0
  ps4GarlicHeapSize: 2048
  ps4ProGarlicHeapSize: 2560
  ps4Passcode: frAQBc8Wsa1xVPfvJcrgRYwTiizs2trQ
  ps4pnSessions: 1
  ps4pnPresence: 1
  ps4pnFriends: 1
  ps4pnGameCustomData: 1
  playerPrefsSupport: 0
  enableApplicationExit: 0
  restrictedAudioUsageRights: 0
  ps4UseResolutionFallback: 0
  ps4ReprojectionSupport: 0
  ps4UseAudio3dBackend: 0
  ps4SocialScreenEnabled: 0
  ps4ScriptOptimizationLevel: 3
  ps4Audio3dVirtualSpeakerCount: 14
  ps4attribCpuUsage: 0
  ps4PatchPkgPath: 
  ps4PatchLatestPkgPath: 
  ps4PatchChangeinfoPath: 
  ps4PatchDayOne: 0
  ps4attribUserManagement: 0
  ps4attribMoveSupport: 0
  ps4attrib3DSupport: 0
  ps4attribShareSupport: 0
  ps4attribExclusiveVR: 0
  ps4disableAutoHideSplash: 0
  ps4videoRecordingFeaturesUsed: 0
  ps4contentSearchFeaturesUsed: 0
  ps4attribEyeToEyeDistanceSettingVR: 0
  ps4IncludedModules: []
  monoEnv: 
  psp2Splashimage: {fileID: 0}
  psp2NPTrophyPackPath: 
  psp2NPSupportGBMorGJP: 0
  psp2NPAgeRating: 12
  psp2NPTitleDatPath: 
  psp2NPCommsID: 
  psp2NPCommunicationsID: 
  psp2NPCommsPassphrase: 
  psp2NPCommsSig: 
  psp2ParamSfxPath: 
  psp2ManualPath: 
  psp2LiveAreaGatePath: 
  psp2LiveAreaBackroundPath: 
  psp2LiveAreaPath: 
  psp2LiveAreaTrialPath: 
  psp2PatchChangeInfoPath: 
  psp2PatchOriginalPackage: 
  psp2PackagePassword: F69AzBlax3CF3EDNhm3soLBPh71Yexui
  psp2KeystoneFile: 
  psp2MemoryExpansionMode: 0
  psp2DRMType: 0
  psp2StorageType: 0
  psp2MediaCapacity: 0
  psp2DLCConfigPath: 
  psp2ThumbnailPath: 
  psp2BackgroundPath: 
  psp2SoundPath: 
  psp2TrophyCommId: 
  psp2TrophyPackagePath: 
  psp2PackagedResourcesPath: 
  psp2SaveDataQuota: 10240
  psp2ParentalLevel: 1
  psp2ShortTitle: Not Set
  psp2ContentID: IV0000-ABCD12345_00-0123456789ABCDEF
  psp2Category: 0
  psp2MasterVersion: 01.00
  psp2AppVersion: 01.00
  psp2TVBootMode: 0
  psp2EnterButtonAssignment: 2
  psp2TVDisableEmu: 0
  psp2AllowTwitterDialog: 1
  psp2Upgradable: 0
  psp2HealthWarning: 0
  psp2UseLibLocation: 0
  psp2InfoBarOnStartup: 0
  psp2InfoBarColor: 0
  psp2ScriptOptimizationLevel: 0
  splashScreenBackgroundSourceLandscape: {fileID: 0}
  splashScreenBackgroundSourcePortrait: {fileID: 0}
  spritePackerPolicy: 
  webGLMemorySize: 256
  webGLExceptionSupport: 1
  webGLNameFilesAsHashes: 0
  webGLDataCaching: 0
  webGLDebugSymbols: 0
  webGLEmscriptenArgs: 
  webGLModulesDirectory: 
  webGLTemplate: APPLICATION:Default
  webGLAnalyzeBuildSize: 0
  webGLUseEmbeddedResources: 0
  webGLCompressionFormat: 1
  webGLLinkerTarget: 0
  scriptingDefineSymbols:
    4: StartText
    7: StartText
  platformArchitecture: {}
  scriptingBackend: {}
  il2cppCompilerConfiguration: {}
  incrementalIl2cppBuild: {}
  allowUnsafeCode: 0
  additionalIl2CppArgs: 
  scriptingRuntimeVersion: 0
  apiCompatibilityLevelPerPlatform: {}
  m_RenderingPath: 1
  m_MobileRenderingPath: 1
  metroPackageName: Current
  metroPackageVersion: 1.0.0.0
  metroCertificatePath: Assets/WSATestCertificate.pfx
  metroCertificatePassword: 
  metroCertificateSubject: Edgaras Lagunovas
  metroCertificateIssuer: Edgaras Lagunovas
  metroCertificateNotAfter: 001471d7513fd401
  metroApplicationDescription: Promptly
  wsaImages:
    65636: Assets/Icons/UWP/Store Logo/50.png
    65661: Assets/Icons/UWP/Store Logo/63.png
    65676: Assets/Icons/UWP/Store Logo/70.png
    65686: Assets/Icons/UWP/Store Logo/75.png
    65716: Assets/Icons/UWP/Store Logo/90.png
    65736: Assets/Icons/UWP/Store Logo/100.png
    65776: Assets/Icons/UWP/Store Logo/120.png
    65936: Assets/Icons/UWP/Store Logo/200.png
    1376356: Assets/Icons/UWP/Windows Phone Tiles and Logos/Application Icon/44.png
    1376396: Assets/Icons/UWP/Windows Phone Tiles and Logos/Application Icon/62.png
    1376496: Assets/Icons/UWP/Windows Phone Tiles and Logos/Application Icon/106.png
    1441892: Assets/Icons/UWP/Windows Phone Tiles and Logos/Small Tile/71.png
    1441932: Assets/Icons/UWP/Windows Phone Tiles and Logos/Small Tile/99.png
    1442032: Assets/Icons/UWP/Windows Phone Tiles and Logos/Small Tile/170.png
    1507428: Assets/Icons/UWP/Windows Phone Tiles and Logos/Medium Tile/150.png
    1507468: Assets/Icons/UWP/Windows Phone Tiles and Logos/Medium Tile/210.png
    1507568: Assets/Icons/UWP/Windows Phone Tiles and Logos/Medium Tile/360.png
    1572964: Assets/Icons/UWP/Windows Phone Tiles and Logos/Wide Tile/310x150.png
    1573004: Assets/Icons/UWP/Windows Phone Tiles and Logos/Wide Tile/434x210.png
    1573104: Assets/Icons/UWP/Windows Phone Tiles and Logos/Wide Tile/744x360.png
    2031716: Assets/Icons/UWP/Universal 10 Tiles and Logos/44.png
    2097252: 
    2162788: Assets/Icons/UWP/Universal 10 Tiles and Logos/150.png
    2228324: 
    2293860: Assets/Icons/UWP/Universal 10 Tiles and Logos/310x150.png
  metroTileShortName: Promptly
  metroCommandLineArgsFile: 
  metroTileShowName: 0
  metroMediumTileShowName: 0
  metroLargeTileShowName: 0
  metroWideTileShowName: 0
  metroDefaultTileSize: 1
  metroTileForegroundText: 2
  metroTileBackgroundColor: {r: 0.13333334, g: 0.17254902, b: 0.21568628, a: 0}
  metroSplashScreenBackgroundColor: {r: 0.12941177, g: 0.17254902, b: 0.21568628,
    a: 1}
  metroSplashScreenUseBackgroundColor: 0
  platformCapabilities:
    WindowsStoreApps:
      AllJoyn: False
      BlockedChatMessages: False
      Bluetooth: False
      Chat: False
      CodeGeneration: False
      EnterpriseAuthentication: False
      HumanInterfaceDevice: False
      InputInjectionBrokered: False
      InternetClient: False
      InternetClientServer: False
      Location: False
      Microphone: False
      MusicLibrary: False
      Objects3D: False
      PhoneCall: False
      PicturesLibrary: False
      PrivateNetworkClientServer: False
      Proximity: False
      RemovableStorage: False
      SharedUserCertificates: False
      SpatialPerception: False
      UserAccountInformation: False
      VideosLibrary: False
      VoipCall: False
      WebCam: False
  metroFTAName: 
  metroFTAFileTypes: []
  metroProtocolName: 
  metroCompilationOverrides: 1
  tizenProductDescription: 
  tizenProductURL: 
  tizenSigningProfileName: 
  tizenGPSPermissions: 0
  tizenMicrophonePermissions: 0
  tizenDeploymentTarget: 
  tizenDeploymentTargetType: 0
  tizenMinOSVersion: 1
  n3dsUseExtSaveData: 0
  n3dsCompressStaticMem: 1
  n3dsExtSaveDataNumber: 0x12345
  n3dsStackSize: 131072
  n3dsTargetPlatform: 2
  n3dsRegion: 7
  n3dsMediaSize: 0
  n3dsLogoStyle: 3
  n3dsTitle: GameName
  n3dsProductCode: 
  n3dsApplicationId: 0xFF3FF
  XboxOneProductId: 
  XboxOneUpdateKey: 
  XboxOneSandboxId: 
  XboxOneContentId: 
  XboxOneTitleId: 
  XboxOneSCId: 
  XboxOneGameOsOverridePath: 
  XboxOnePackagingOverridePath: 
  XboxOneAppManifestOverridePath: 
  XboxOnePackageEncryption: 0
  XboxOnePackageUpdateGranularity: 2
  XboxOneDescription: 
  XboxOneLanguage:
  - enus
  XboxOneCapability: []
  XboxOneGameRating: {}
  XboxOneIsContentPackage: 0
  XboxOneEnableGPUVariability: 0
  XboxOneSockets: {}
  XboxOneSplashScreen: {fileID: 0}
  XboxOneAllowedProductIds: []
  XboxOnePersistentLocalStorageSize: 0
  XboxOneXTitleMemory: 8
  xboxOneScriptCompiler: 0
  vrEditorSettings:
    daydream:
      daydreamIconForeground: {fileID: 0}
      daydreamIconBackground: {fileID: 0}
  cloudServicesEnabled:
    Build: 1
    Collab: 1
    UNet: 1
  facebookSdkVersion: 7.9.4
  apiCompatibilityLevel: 2
  cloudProjectId: d1070e5a-2e6f-41c2-8195-95ded00d3af9
  projectName: Promptly
  organizationId: edgaras-lagunovas
  cloudEnabled: 0
  enableNativePlatformBackendsForNewInputSystem: 0
  disableOldInputManagerSupport: 0
